{
  "project_info": {
    "project_number": "467676171437",
    "firebase_url": "https://tax-report-4977d.firebaseio.com",
    "project_id": "tax-report-4977d",
    "storage_bucket": "tax-report-4977d.appspot.com"
  },
  "client": [
    {
      "client_info": {
        "mobilesdk_app_id": "1:467676171437:android:b30d808da00c51c4",
        "android_client_info": {
          "package_name": "vn.vnpt.camau.taxreport"
        }
      },
      "oauth_client": [
        {
          "client_id": "467676171437-mp28v4cq77oia4pdmbudatvfg1p9me7r.apps.googleusercontent.com",
          "client_type": 1,
          "android_info": {
            "package_name": "vn.vnpt.camau.taxreport",
            "certificate_hash": "34dfc30bad890ac4c5e2e8bdf432dc653337f284"
          }
        },
        {
          "client_id": "467676171437-0kdackh1c6asfmqom23e0ri5j9a3srmr.apps.googleusercontent.com",
          "client_type": 1,
          "android_info": {
            "package_name": "vn.vnpt.camau.taxreport",
            "certificate_hash": "886d34ef50c3538172d84d2963f138782b2187b6"
          }
        },
        {
          "client_id": "467676171437-k40i29m4l5o4naeer8i6nv78pshjbg2k.apps.googleusercontent.com",
          "client_type": 1,
          "android_info": {
            "package_name": "vn.vnpt.camau.taxreport",
            "certificate_hash": "ea783bf03b55b876e347e195b331b91de5fef190"
          }
        },
        {
          "client_id": "467676171437-9146mvi91mfqbmfl10paeqkt7kn7cvkt.apps.googleusercontent.com",
          "client_type": 3
        }
      ],
      "api_key": [
        {
          "current_key": "AIzaSyCHlBh-RW3kj2yXKkeSPRw-fqqwchxas5g"
        }
      ],
      "services": {
        "appinvite_service": {
          "other_platform_oauth_client": [
            {
              "client_id": "467676171437-9146mvi91mfqbmfl10paeqkt7kn7cvkt.apps.googleusercontent.com",
              "client_type": 3
            },
            {
              "client_id": "467676171437-qe76fl2ijb17i0ig161mhjaoo8iel0pd.apps.googleusercontent.com",
              "client_type": 2,
              "ios_info": {
                "bundle_id": "vn.vnpt.camau.ThueCaMauVn"
              }
            }
          ]
        }
      }
    }
  ],
  "configuration_version": "1"
}